Professor,Question,Result,Section,evaluatee,evaluator,contentId
 Edgardo Torres,1. Starts the lesson in an interesting manner.,5,BSIT 4-E,318,214,1
 Edgardo Torres,2. Clarifies the objective/s of the lesson.,3,BSIT 4-E,318,214,2
 Edgardo Torres,3. Makes the lesson practical and relevant by relating it with everyday living.,4,BSIT 4-E,318,214,3
 Edgardo Torres,4. Relates the lesson with current issues and other subject areas whenever possible.,4,BSIT 4-E,318,214,4
 Edgardo Torres,"5. Facilitates student's understanding by rephrasing questions using synonyms, giving examples and the like.",4,BSIT 4-E,318,214,5
 Edgardo Torres,6. Formulates questions that challenge the student's imagination or reasoning ability.,5,BSIT 4-E,318,214,6
 Edgardo Torres,7. Gives student's learning tasks; exercises related to the topics learned/being learned.,5,BSIT 4-E,318,214,7
 Edgardo Torres,8. Uses instructional time productively by properly apportioning it to all class activities.,3,BSIT 4-E,318,214,8
 Edgardo Torres,9. Encourages maximum participation of the students in all activities.,5,BSIT 4-E,318,214,9
 Edgardo Torres,"10. Makes use of the whiteboard and other audiovisual materials like pictures, graphs, and outlines to make the lesson more interesting.",5,BSIT 4-E,318,214,10
 Edgardo Torres,"11. Provides students with more opportunities for learning by giving assignments, research work, and the like which could be accomplished.",5,BSIT 4-E,318,214,11
 Edgardo Torres,12. Encourages students to ask intelligent and relevant questions.,3,BSIT 4-E,318,214,12
 Edgardo Torres,13. Establishes continuity and unity of present and previous lessons. Summarizes the lesson to bring out important points.,4,BSIT 4-E,318,214,13
 Edgardo Torres,14. Evaluates students performance by giving quizzes from time to time.,3,BSIT 4-E,318,214,14
 Edgardo Torres,15. Informs students of test results not later than two weeks after the exam.,3,BSIT 4-E,318,214,15
 Edgardo Torres,16. Explains the grading system and gives grades fairly.,4,BSIT 4-E,318,214,16
 Edgardo Torres,1. Presents the lessons systematically.,5,BSIT 4-E,318,214,17
 Edgardo Torres,2. Explains the lesson/objectives clearly.,4,BSIT 4-E,318,214,18
 Edgardo Torres,3. Answers question of the students intelligently and satisfactorily.,3,BSIT 4-E,318,214,19
 Edgardo Torres,1. Speaks correct English and/or Filipino and communicates his/her ideas well.,3,BSIT 4-E,318,214,20
 Edgardo Torres,2. Has a loud voice enough to be heard by everyone in class.,3,BSIT 4-E,318,214,21
 Edgardo Torres,1. Sees to it that the room is clean and orderly at all times.,5,BSIT 4-E,318,214,22
 Edgardo Torres,2. Maintains classroom discipline.,4,BSIT 4-E,318,214,23
 Edgardo Torres,3. Checks the attendance of students.,4,BSIT 4-E,318,214,24
 Edgardo Torres,4. Sees to it that the students wear the prescribed uniform.,3,BSIT 4-E,318,214,25
 Edgardo Torres,5. Sees to it that all teaching materials like whiteboard marker and erasers are prepared.,4,BSIT 4-E,318,214,26
 Edgardo Torres,"6. Turns off airconditioning units, all lights, and make sure that the whiteboard is clean before dismissing the class.",5,BSIT 4-E,318,214,27
 Edgardo Torres,"1. Projects self-confidence; respects the opinions, suggestions, and comments of students.",3,BSIT 4-E,318,214,28
 Edgardo Torres,2. Projects a respectable and a decent image.,3,BSIT 4-E,318,214,29
 Edgardo Torres,3. Practices what he/she preaches/advises.,4,BSIT 4-E,318,214,30
 Edgardo Torres,4. Manifests and promotes the Benedictine charism of work and prayer.,3,BSIT 4-E,318,214,31
 Edgardo Torres,5. Integrates positive values in the lesson.,4,BSIT 4-E,318,214,32
 Edgardo Torres,6. Recognizes students' participation in institutional activities by giving proper considerations.,5,BSIT 4-E,318,214,33
 Edgardo Torres,7. Comes to class on regularly.,4,BSIT 4-E,318,214,34
 Edgardo Torres,8. Comes to class on time.,4,BSIT 4-E,318,214,35
 Edgardo Torres,9. Is approachable and encourages students to consult him/her for assistance.,3,BSIT 4-E,318,214,36
 Edgardo Torres,1. Starts the lesson in an interesting manner.,4,BSIT 4-E,318,89,1
 Edgardo Torres,2. Clarifies the objective/s of the lesson.,4,BSIT 4-E,318,89,2
 Edgardo Torres,3. Makes the lesson practical and relevant by relating it with everyday living.,3,BSIT 4-E,318,89,3
 Edgardo Torres,4. Relates the lesson with current issues and other subject areas whenever possible.,5,BSIT 4-E,318,89,4
 Edgardo Torres,"5. Facilitates student's understanding by rephrasing questions using synonyms, giving examples and the like.",4,BSIT 4-E,318,89,5
 Edgardo Torres,6. Formulates questions that challenge the student's imagination or reasoning ability.,3,BSIT 4-E,318,89,6
 Edgardo Torres,7. Gives student's learning tasks; exercises related to the topics learned/being learned.,5,BSIT 4-E,318,89,7
 Edgardo Torres,8. Uses instructional time productively by properly apportioning it to all class activities.,4,BSIT 4-E,318,89,8
 Edgardo Torres,9. Encourages maximum participation of the students in all activities.,3,BSIT 4-E,318,89,9
 Edgardo Torres,"10. Makes use of the whiteboard and other audiovisual materials like pictures, graphs, and outlines to make the lesson more interesting.",3,BSIT 4-E,318,89,10
 Edgardo Torres,"11. Provides students with more opportunities for learning by giving assignments, research work, and the like which could be accomplished.",5,BSIT 4-E,318,89,11
 Edgardo Torres,12. Encourages students to ask intelligent and relevant questions.,4,BSIT 4-E,318,89,12
 Edgardo Torres,13. Establishes continuity and unity of present and previous lessons. Summarizes the lesson to bring out important points.,3,BSIT 4-E,318,89,13
 Edgardo Torres,14. Evaluates students performance by giving quizzes from time to time.,4,BSIT 4-E,318,89,14
 Edgardo Torres,15. Informs students of test results not later than two weeks after the exam.,3,BSIT 4-E,318,89,15
 Edgardo Torres,16. Explains the grading system and gives grades fairly.,5,BSIT 4-E,318,89,16
 Edgardo Torres,1. Presents the lessons systematically.,4,BSIT 4-E,318,89,17
 Edgardo Torres,2. Explains the lesson/objectives clearly.,4,BSIT 4-E,318,89,18
 Edgardo Torres,3. Answers question of the students intelligently and satisfactorily.,5,BSIT 4-E,318,89,19
 Edgardo Torres,1. Speaks correct English and/or Filipino and communicates his/her ideas well.,3,BSIT 4-E,318,89,20
 Edgardo Torres,2. Has a loud voice enough to be heard by everyone in class.,5,BSIT 4-E,318,89,21
 Edgardo Torres,1. Sees to it that the room is clean and orderly at all times.,4,BSIT 4-E,318,89,22
 Edgardo Torres,2. Maintains classroom discipline.,5,BSIT 4-E,318,89,23
 Edgardo Torres,3. Checks the attendance of students.,5,BSIT 4-E,318,89,24
 Edgardo Torres,4. Sees to it that the students wear the prescribed uniform.,4,BSIT 4-E,318,89,25
 Edgardo Torres,5. Sees to it that all teaching materials like whiteboard marker and erasers are prepared.,4,BSIT 4-E,318,89,26
 Edgardo Torres,"6. Turns off airconditioning units, all lights, and make sure that the whiteboard is clean before dismissing the class.",5,BSIT 4-E,318,89,27
 Edgardo Torres,"1. Projects self-confidence; respects the opinions, suggestions, and comments of students.",5,BSIT 4-E,318,89,28
 Edgardo Torres,2. Projects a respectable and a decent image.,3,BSIT 4-E,318,89,29
 Edgardo Torres,3. Practices what he/she preaches/advises.,5,BSIT 4-E,318,89,30
 Edgardo Torres,4. Manifests and promotes the Benedictine charism of work and prayer.,4,BSIT 4-E,318,89,31
 Edgardo Torres,5. Integrates positive values in the lesson.,5,BSIT 4-E,318,89,32
 Edgardo Torres,6. Recognizes students' participation in institutional activities by giving proper considerations.,3,BSIT 4-E,318,89,33
 Edgardo Torres,7. Comes to class on regularly.,3,BSIT 4-E,318,89,34
 Edgardo Torres,8. Comes to class on time.,3,BSIT 4-E,318,89,35
 Edgardo Torres,9. Is approachable and encourages students to consult him/her for assistance.,3,BSIT 4-E,318,89,36
 Edgardo Torres,1. Starts the lesson in an interesting manner.,4,BSIT 4-E,318,287,1
 Edgardo Torres,2. Clarifies the objective/s of the lesson.,3,BSIT 4-E,318,287,2
 Edgardo Torres,3. Makes the lesson practical and relevant by relating it with everyday living.,4,BSIT 4-E,318,287,3
 Edgardo Torres,4. Relates the lesson with current issues and other subject areas whenever possible.,5,BSIT 4-E,318,287,4
 Edgardo Torres,"5. Facilitates student's understanding by rephrasing questions using synonyms, giving examples and the like.",5,BSIT 4-E,318,287,5
 Edgardo Torres,6. Formulates questions that challenge the student's imagination or reasoning ability.,3,BSIT 4-E,318,287,6
 Edgardo Torres,7. Gives student's learning tasks; exercises related to the topics learned/being learned.,4,BSIT 4-E,318,287,7
 Edgardo Torres,8. Uses instructional time productively by properly apportioning it to all class activities.,4,BSIT 4-E,318,287,8
 Edgardo Torres,9. Encourages maximum participation of the students in all activities.,5,BSIT 4-E,318,287,9
 Edgardo Torres,"10. Makes use of the whiteboard and other audiovisual materials like pictures, graphs, and outlines to make the lesson more interesting.",5,BSIT 4-E,318,287,10
 Edgardo Torres,"11. Provides students with more opportunities for learning by giving assignments, research work, and the like which could be accomplished.",3,BSIT 4-E,318,287,11
 Edgardo Torres,12. Encourages students to ask intelligent and relevant questions.,4,BSIT 4-E,318,287,12
 Edgardo Torres,13. Establishes continuity and unity of present and previous lessons. Summarizes the lesson to bring out important points.,4,BSIT 4-E,318,287,13
 Edgardo Torres,14. Evaluates students performance by giving quizzes from time to time.,3,BSIT 4-E,318,287,14
 Edgardo Torres,15. Informs students of test results not later than two weeks after the exam.,3,BSIT 4-E,318,287,15
 Edgardo Torres,16. Explains the grading system and gives grades fairly.,5,BSIT 4-E,318,287,16
 Edgardo Torres,1. Presents the lessons systematically.,5,BSIT 4-E,318,287,17
 Edgardo Torres,2. Explains the lesson/objectives clearly.,5,BSIT 4-E,318,287,18
 Edgardo Torres,3. Answers question of the students intelligently and satisfactorily.,5,BSIT 4-E,318,287,19
 Edgardo Torres,1. Speaks correct English and/or Filipino and communicates his/her ideas well.,5,BSIT 4-E,318,287,20
 Edgardo Torres,2. Has a loud voice enough to be heard by everyone in class.,5,BSIT 4-E,318,287,21
 Edgardo Torres,1. Sees to it that the room is clean and orderly at all times.,4,BSIT 4-E,318,287,22
 Edgardo Torres,2. Maintains classroom discipline.,4,BSIT 4-E,318,287,23
 Edgardo Torres,3. Checks the attendance of students.,4,BSIT 4-E,318,287,24
 Edgardo Torres,4. Sees to it that the students wear the prescribed uniform.,4,BSIT 4-E,318,287,25
 Edgardo Torres,5. Sees to it that all teaching materials like whiteboard marker and erasers are prepared.,4,BSIT 4-E,318,287,26
 Edgardo Torres,"6. Turns off airconditioning units, all lights, and make sure that the whiteboard is clean before dismissing the class.",4,BSIT 4-E,318,287,27
 Edgardo Torres,"1. Projects self-confidence; respects the opinions, suggestions, and comments of students.",4,BSIT 4-E,318,287,28
 Edgardo Torres,2. Projects a respectable and a decent image.,5,BSIT 4-E,318,287,29
 Edgardo Torres,3. Practices what he/she preaches/advises.,4,BSIT 4-E,318,287,30
 Edgardo Torres,4. Manifests and promotes the Benedictine charism of work and prayer.,3,BSIT 4-E,318,287,31
 Edgardo Torres,5. Integrates positive values in the lesson.,3,BSIT 4-E,318,287,32
 Edgardo Torres,6. Recognizes students' participation in institutional activities by giving proper considerations.,3,BSIT 4-E,318,287,33
 Edgardo Torres,7. Comes to class on regularly.,4,BSIT 4-E,318,287,34
 Edgardo Torres,8. Comes to class on time.,5,BSIT 4-E,318,287,35
 Edgardo Torres,9. Is approachable and encourages students to consult him/her for assistance.,4,BSIT 4-E,318,287,36
 Edgardo Torres,1. Starts the lesson in an interesting manner.,3,BSIT 4-E,318,307,1
 Edgardo Torres,2. Clarifies the objective/s of the lesson.,3,BSIT 4-E,318,307,2
 Edgardo Torres,3. Makes the lesson practical and relevant by relating it with everyday living.,5,BSIT 4-E,318,307,3
 Edgardo Torres,4. Relates the lesson with current issues and other subject areas whenever possible.,3,BSIT 4-E,318,307,4
 Edgardo Torres,"5. Facilitates student's understanding by rephrasing questions using synonyms, giving examples and the like.",3,BSIT 4-E,318,307,5
 Edgardo Torres,6. Formulates questions that challenge the student's imagination or reasoning ability.,3,BSIT 4-E,318,307,6
 Edgardo Torres,7. Gives student's learning tasks; exercises related to the topics learned/being learned.,3,BSIT 4-E,318,307,7
 Edgardo Torres,8. Uses instructional time productively by properly apportioning it to all class activities.,3,BSIT 4-E,318,307,8
 Edgardo Torres,9. Encourages maximum participation of the students in all activities.,3,BSIT 4-E,318,307,9
 Edgardo Torres,"10. Makes use of the whiteboard and other audiovisual materials like pictures, graphs, and outlines to make the lesson more interesting.",5,BSIT 4-E,318,307,10
 Edgardo Torres,"11. Provides students with more opportunities for learning by giving assignments, research work, and the like which could be accomplished.",3,BSIT 4-E,318,307,11
 Edgardo Torres,12. Encourages students to ask intelligent and relevant questions.,5,BSIT 4-E,318,307,12
 Edgardo Torres,13. Establishes continuity and unity of present and previous lessons. Summarizes the lesson to bring out important points.,5,BSIT 4-E,318,307,13
 Edgardo Torres,14. Evaluates students performance by giving quizzes from time to time.,5,BSIT 4-E,318,307,14
 Edgardo Torres,15. Informs students of test results not later than two weeks after the exam.,5,BSIT 4-E,318,307,15
 Edgardo Torres,16. Explains the grading system and gives grades fairly.,5,BSIT 4-E,318,307,16
 Edgardo Torres,1. Presents the lessons systematically.,5,BSIT 4-E,318,307,17
 Edgardo Torres,2. Explains the lesson/objectives clearly.,4,BSIT 4-E,318,307,18
 Edgardo Torres,3. Answers question of the students intelligently and satisfactorily.,3,BSIT 4-E,318,307,19
 Edgardo Torres,1. Speaks correct English and/or Filipino and communicates his/her ideas well.,5,BSIT 4-E,318,307,20
 Edgardo Torres,2. Has a loud voice enough to be heard by everyone in class.,5,BSIT 4-E,318,307,21
 Edgardo Torres,1. Sees to it that the room is clean and orderly at all times.,3,BSIT 4-E,318,307,22
 Edgardo Torres,2. Maintains classroom discipline.,3,BSIT 4-E,318,307,23
 Edgardo Torres,3. Checks the attendance of students.,3,BSIT 4-E,318,307,24
 Edgardo Torres,4. Sees to it that the students wear the prescribed uniform.,4,BSIT 4-E,318,307,25
 Edgardo Torres,5. Sees to it that all teaching materials like whiteboard marker and erasers are prepared.,4,BSIT 4-E,318,307,26
 Edgardo Torres,"6. Turns off airconditioning units, all lights, and make sure that the whiteboard is clean before dismissing the class.",3,BSIT 4-E,318,307,27
 Edgardo Torres,"1. Projects self-confidence; respects the opinions, suggestions, and comments of students.",4,BSIT 4-E,318,307,28
 Edgardo Torres,2. Projects a respectable and a decent image.,5,BSIT 4-E,318,307,29
 Edgardo Torres,3. Practices what he/she preaches/advises.,3,BSIT 4-E,318,307,30
 Edgardo Torres,4. Manifests and promotes the Benedictine charism of work and prayer.,4,BSIT 4-E,318,307,31
 Edgardo Torres,5. Integrates positive values in the lesson.,4,BSIT 4-E,318,307,32
 Edgardo Torres,6. Recognizes students' participation in institutional activities by giving proper considerations.,5,BSIT 4-E,318,307,33
 Edgardo Torres,7. Comes to class on regularly.,3,BSIT 4-E,318,307,34
 Edgardo Torres,8. Comes to class on time.,5,BSIT 4-E,318,307,35
 Edgardo Torres,9. Is approachable and encourages students to consult him/her for assistance.,3,BSIT 4-E,318,307,36
 Edgardo Torres,1. Starts the lesson in an interesting manner.,4,BSIT 4-E,318,293,1
 Edgardo Torres,2. Clarifies the objective/s of the lesson.,5,BSIT 4-E,318,293,2
 Edgardo Torres,3. Makes the lesson practical and relevant by relating it with everyday living.,4,BSIT 4-E,318,293,3
 Edgardo Torres,4. Relates the lesson with current issues and other subject areas whenever possible.,4,BSIT 4-E,318,293,4
 Edgardo Torres,"5. Facilitates student's understanding by rephrasing questions using synonyms, giving examples and the like.",3,BSIT 4-E,318,293,5
 Edgardo Torres,6. Formulates questions that challenge the student's imagination or reasoning ability.,3,BSIT 4-E,318,293,6
 Edgardo Torres,7. Gives student's learning tasks; exercises related to the topics learned/being learned.,3,BSIT 4-E,318,293,7
 Edgardo Torres,8. Uses instructional time productively by properly apportioning it to all class activities.,5,BSIT 4-E,318,293,8
 Edgardo Torres,9. Encourages maximum participation of the students in all activities.,3,BSIT 4-E,318,293,9
 Edgardo Torres,"10. Makes use of the whiteboard and other audiovisual materials like pictures, graphs, and outlines to make the lesson more interesting.",3,BSIT 4-E,318,293,10
 Edgardo Torres,"11. Provides students with more opportunities for learning by giving assignments, research work, and the like which could be accomplished.",4,BSIT 4-E,318,293,11
 Edgardo Torres,12. Encourages students to ask intelligent and relevant questions.,3,BSIT 4-E,318,293,12
 Edgardo Torres,13. Establishes continuity and unity of present and previous lessons. Summarizes the lesson to bring out important points.,4,BSIT 4-E,318,293,13
 Edgardo Torres,14. Evaluates students performance by giving quizzes from time to time.,4,BSIT 4-E,318,293,14
 Edgardo Torres,15. Informs students of test results not later than two weeks after the exam.,5,BSIT 4-E,318,293,15
 Edgardo Torres,16. Explains the grading system and gives grades fairly.,5,BSIT 4-E,318,293,16
 Edgardo Torres,1. Presents the lessons systematically.,3,BSIT 4-E,318,293,17
 Edgardo Torres,2. Explains the lesson/objectives clearly.,4,BSIT 4-E,318,293,18
 Edgardo Torres,3. Answers question of the students intelligently and satisfactorily.,5,BSIT 4-E,318,293,19
 Edgardo Torres,1. Speaks correct English and/or Filipino and communicates his/her ideas well.,4,BSIT 4-E,318,293,20
 Edgardo Torres,2. Has a loud voice enough to be heard by everyone in class.,5,BSIT 4-E,318,293,21
 Edgardo Torres,1. Sees to it that the room is clean and orderly at all times.,4,BSIT 4-E,318,293,22
 Edgardo Torres,2. Maintains classroom discipline.,5,BSIT 4-E,318,293,23
 Edgardo Torres,3. Checks the attendance of students.,5,BSIT 4-E,318,293,24
 Edgardo Torres,4. Sees to it that the students wear the prescribed uniform.,5,BSIT 4-E,318,293,25
 Edgardo Torres,5. Sees to it that all teaching materials like whiteboard marker and erasers are prepared.,4,BSIT 4-E,318,293,26
 Edgardo Torres,"6. Turns off airconditioning units, all lights, and make sure that the whiteboard is clean before dismissing the class.",3,BSIT 4-E,318,293,27
 Edgardo Torres,"1. Projects self-confidence; respects the opinions, suggestions, and comments of students.",3,BSIT 4-E,318,293,28
 Edgardo Torres,2. Projects a respectable and a decent image.,4,BSIT 4-E,318,293,29
 Edgardo Torres,3. Practices what he/she preaches/advises.,5,BSIT 4-E,318,293,30
 Edgardo Torres,4. Manifests and promotes the Benedictine charism of work and prayer.,5,BSIT 4-E,318,293,31
 Edgardo Torres,5. Integrates positive values in the lesson.,4,BSIT 4-E,318,293,32
 Edgardo Torres,6. Recognizes students' participation in institutional activities by giving proper considerations.,3,BSIT 4-E,318,293,33
 Edgardo Torres,7. Comes to class on regularly.,5,BSIT 4-E,318,293,34
 Edgardo Torres,8. Comes to class on time.,5,BSIT 4-E,318,293,35
 Edgardo Torres,9. Is approachable and encourages students to consult him/her for assistance.,4,BSIT 4-E,318,293,36
 Edgardo Torres,1. Starts the lesson in an interesting manner.,3,BSIT 4-E,318,293,1
 Edgardo Torres,2. Clarifies the objective/s of the lesson.,3,BSIT 4-E,318,293,2
 Edgardo Torres,3. Makes the lesson practical and relevant by relating it with everyday living.,5,BSIT 4-E,318,293,3
 Edgardo Torres,4. Relates the lesson with current issues and other subject areas whenever possible.,4,BSIT 4-E,318,293,4
 Edgardo Torres,"5. Facilitates student's understanding by rephrasing questions using synonyms, giving examples and the like.",5,BSIT 4-E,318,293,5
 Edgardo Torres,6. Formulates questions that challenge the student's imagination or reasoning ability.,5,BSIT 4-E,318,293,6
 Edgardo Torres,7. Gives student's learning tasks; exercises related to the topics learned/being learned.,5,BSIT 4-E,318,293,7
 Edgardo Torres,8. Uses instructional time productively by properly apportioning it to all class activities.,3,BSIT 4-E,318,293,8
 Edgardo Torres,9. Encourages maximum participation of the students in all activities.,3,BSIT 4-E,318,293,9
 Edgardo Torres,"10. Makes use of the whiteboard and other audiovisual materials like pictures, graphs, and outlines to make the lesson more interesting.",4,BSIT 4-E,318,293,10
 Edgardo Torres,"11. Provides students with more opportunities for learning by giving assignments, research work, and the like which could be accomplished.",4,BSIT 4-E,318,293,11
 Edgardo Torres,12. Encourages students to ask intelligent and relevant questions.,4,BSIT 4-E,318,293,12
 Edgardo Torres,13. Establishes continuity and unity of present and previous lessons. Summarizes the lesson to bring out important points.,3,BSIT 4-E,318,293,13
 Edgardo Torres,14. Evaluates students performance by giving quizzes from time to time.,4,BSIT 4-E,318,293,14
 Edgardo Torres,15. Informs students of test results not later than two weeks after the exam.,5,BSIT 4-E,318,293,15
 Edgardo Torres,16. Explains the grading system and gives grades fairly.,5,BSIT 4-E,318,293,16
 Edgardo Torres,1. Presents the lessons systematically.,3,BSIT 4-E,318,293,17
 Edgardo Torres,2. Explains the lesson/objectives clearly.,3,BSIT 4-E,318,293,18
 Edgardo Torres,3. Answers question of the students intelligently and satisfactorily.,4,BSIT 4-E,318,293,19
 Edgardo Torres,1. Speaks correct English and/or Filipino and communicates his/her ideas well.,3,BSIT 4-E,318,293,20
 Edgardo Torres,2. Has a loud voice enough to be heard by everyone in class.,4,BSIT 4-E,318,293,21
 Edgardo Torres,1. Sees to it that the room is clean and orderly at all times.,4,BSIT 4-E,318,293,22
 Edgardo Torres,2. Maintains classroom discipline.,3,BSIT 4-E,318,293,23
 Edgardo Torres,3. Checks the attendance of students.,4,BSIT 4-E,318,293,24
 Edgardo Torres,4. Sees to it that the students wear the prescribed uniform.,3,BSIT 4-E,318,293,25
 Edgardo Torres,5. Sees to it that all teaching materials like whiteboard marker and erasers are prepared.,3,BSIT 4-E,318,293,26
 Edgardo Torres,"6. Turns off airconditioning units, all lights, and make sure that the whiteboard is clean before dismissing the class.",3,BSIT 4-E,318,293,27
 Edgardo Torres,"1. Projects self-confidence; respects the opinions, suggestions, and comments of students.",5,BSIT 4-E,318,293,28
 Edgardo Torres,2. Projects a respectable and a decent image.,3,BSIT 4-E,318,293,29
 Edgardo Torres,3. Practices what he/she preaches/advises.,4,BSIT 4-E,318,293,30
 Edgardo Torres,4. Manifests and promotes the Benedictine charism of work and prayer.,4,BSIT 4-E,318,293,31
 Edgardo Torres,5. Integrates positive values in the lesson.,3,BSIT 4-E,318,293,32
 Edgardo Torres,6. Recognizes students' participation in institutional activities by giving proper considerations.,3,BSIT 4-E,318,293,33
 Edgardo Torres,7. Comes to class on regularly.,4,BSIT 4-E,318,293,34
 Edgardo Torres,8. Comes to class on time.,4,BSIT 4-E,318,293,35
 Edgardo Torres,9. Is approachable and encourages students to consult him/her for assistance.,5,BSIT 4-E,318,293,36
 Edgardo Torres,1. Starts the lesson in an interesting manner.,5,BSIT 4-E,318,133,1
 Edgardo Torres,2. Clarifies the objective/s of the lesson.,3,BSIT 4-E,318,133,2
 Edgardo Torres,3. Makes the lesson practical and relevant by relating it with everyday living.,5,BSIT 4-E,318,133,3
 Edgardo Torres,4. Relates the lesson with current issues and other subject areas whenever possible.,4,BSIT 4-E,318,133,4
 Edgardo Torres,"5. Facilitates student's understanding by rephrasing questions using synonyms, giving examples and the like.",5,BSIT 4-E,318,133,5
 Edgardo Torres,6. Formulates questions that challenge the student's imagination or reasoning ability.,3,BSIT 4-E,318,133,6
 Edgardo Torres,7. Gives student's learning tasks; exercises related to the topics learned/being learned.,3,BSIT 4-E,318,133,7
 Edgardo Torres,8. Uses instructional time productively by properly apportioning it to all class activities.,5,BSIT 4-E,318,133,8
 Edgardo Torres,9. Encourages maximum participation of the students in all activities.,3,BSIT 4-E,318,133,9
 Edgardo Torres,"10. Makes use of the whiteboard and other audiovisual materials like pictures, graphs, and outlines to make the lesson more interesting.",4,BSIT 4-E,318,133,10
 Edgardo Torres,"11. Provides students with more opportunities for learning by giving assignments, research work, and the like which could be accomplished.",5,BSIT 4-E,318,133,11
 Edgardo Torres,12. Encourages students to ask intelligent and relevant questions.,5,BSIT 4-E,318,133,12
 Edgardo Torres,13. Establishes continuity and unity of present and previous lessons. Summarizes the lesson to bring out important points.,5,BSIT 4-E,318,133,13
 Edgardo Torres,14. Evaluates students performance by giving quizzes from time to time.,5,BSIT 4-E,318,133,14
 Edgardo Torres,15. Informs students of test results not later than two weeks after the exam.,4,BSIT 4-E,318,133,15
 Edgardo Torres,16. Explains the grading system and gives grades fairly.,3,BSIT 4-E,318,133,16
 Edgardo Torres,1. Presents the lessons systematically.,3,BSIT 4-E,318,133,17
 Edgardo Torres,2. Explains the lesson/objectives clearly.,4,BSIT 4-E,318,133,18
 Edgardo Torres,3. Answers question of the students intelligently and satisfactorily.,3,BSIT 4-E,318,133,19
 Edgardo Torres,1. Speaks correct English and/or Filipino and communicates his/her ideas well.,4,BSIT 4-E,318,133,20
 Edgardo Torres,2. Has a loud voice enough to be heard by everyone in class.,4,BSIT 4-E,318,133,21
 Edgardo Torres,1. Sees to it that the room is clean and orderly at all times.,5,BSIT 4-E,318,133,22
 Edgardo Torres,2. Maintains classroom discipline.,4,BSIT 4-E,318,133,23
 Edgardo Torres,3. Checks the attendance of students.,3,BSIT 4-E,318,133,24
 Edgardo Torres,4. Sees to it that the students wear the prescribed uniform.,5,BSIT 4-E,318,133,25
 Edgardo Torres,5. Sees to it that all teaching materials like whiteboard marker and erasers are prepared.,4,BSIT 4-E,318,133,26
 Edgardo Torres,"6. Turns off airconditioning units, all lights, and make sure that the whiteboard is clean before dismissing the class.",5,BSIT 4-E,318,133,27
 Edgardo Torres,"1. Projects self-confidence; respects the opinions, suggestions, and comments of students.",3,BSIT 4-E,318,133,28
 Edgardo Torres,2. Projects a respectable and a decent image.,4,BSIT 4-E,318,133,29
 Edgardo Torres,3. Practices what he/she preaches/advises.,4,BSIT 4-E,318,133,30
 Edgardo Torres,4. Manifests and promotes the Benedictine charism of work and prayer.,5,BSIT 4-E,318,133,31
 Edgardo Torres,5. Integrates positive values in the lesson.,3,BSIT 4-E,318,133,32
 Edgardo Torres,6. Recognizes students' participation in institutional activities by giving proper considerations.,5,BSIT 4-E,318,133,33
 Edgardo Torres,7. Comes to class on regularly.,5,BSIT 4-E,318,133,34
 Edgardo Torres,8. Comes to class on time.,4,BSIT 4-E,318,133,35
 Edgardo Torres,9. Is approachable and encourages students to consult him/her for assistance.,3,BSIT 4-E,318,133,36
 Edgardo Torres,1. Starts the lesson in an interesting manner.,4,BSIT 4-E,318,293,1
 Edgardo Torres,2. Clarifies the objective/s of the lesson.,5,BSIT 4-E,318,293,2
 Edgardo Torres,3. Makes the lesson practical and relevant by relating it with everyday living.,5,BSIT 4-E,318,293,3
 Edgardo Torres,4. Relates the lesson with current issues and other subject areas whenever possible.,4,BSIT 4-E,318,293,4
 Edgardo Torres,"5. Facilitates student's understanding by rephrasing questions using synonyms, giving examples and the like.",3,BSIT 4-E,318,293,5
 Edgardo Torres,6. Formulates questions that challenge the student's imagination or reasoning ability.,5,BSIT 4-E,318,293,6
 Edgardo Torres,7. Gives student's learning tasks; exercises related to the topics learned/being learned.,5,BSIT 4-E,318,293,7
 Edgardo Torres,8. Uses instructional time productively by properly apportioning it to all class activities.,5,BSIT 4-E,318,293,8
 Edgardo Torres,9. Encourages maximum participation of the students in all activities.,4,BSIT 4-E,318,293,9
 Edgardo Torres,"10. Makes use of the whiteboard and other audiovisual materials like pictures, graphs, and outlines to make the lesson more interesting.",4,BSIT 4-E,318,293,10
 Edgardo Torres,"11. Provides students with more opportunities for learning by giving assignments, research work, and the like which could be accomplished.",5,BSIT 4-E,318,293,11
 Edgardo Torres,12. Encourages students to ask intelligent and relevant questions.,4,BSIT 4-E,318,293,12
 Edgardo Torres,13. Establishes continuity and unity of present and previous lessons. Summarizes the lesson to bring out important points.,3,BSIT 4-E,318,293,13
 Edgardo Torres,14. Evaluates students performance by giving quizzes from time to time.,5,BSIT 4-E,318,293,14
 Edgardo Torres,15. Informs students of test results not later than two weeks after the exam.,4,BSIT 4-E,318,293,15
 Edgardo Torres,16. Explains the grading system and gives grades fairly.,4,BSIT 4-E,318,293,16
 Edgardo Torres,1. Presents the lessons systematically.,3,BSIT 4-E,318,293,17
 Edgardo Torres,2. Explains the lesson/objectives clearly.,5,BSIT 4-E,318,293,18
 Edgardo Torres,3. Answers question of the students intelligently and satisfactorily.,3,BSIT 4-E,318,293,19
 Edgardo Torres,1. Speaks correct English and/or Filipino and communicates his/her ideas well.,5,BSIT 4-E,318,293,20
 Edgardo Torres,2. Has a loud voice enough to be heard by everyone in class.,4,BSIT 4-E,318,293,21
 Edgardo Torres,1. Sees to it that the room is clean and orderly at all times.,4,BSIT 4-E,318,293,22
 Edgardo Torres,2. Maintains classroom discipline.,4,BSIT 4-E,318,293,23
 Edgardo Torres,3. Checks the attendance of students.,4,BSIT 4-E,318,293,24
 Edgardo Torres,4. Sees to it that the students wear the prescribed uniform.,4,BSIT 4-E,318,293,25
 Edgardo Torres,5. Sees to it that all teaching materials like whiteboard marker and erasers are prepared.,3,BSIT 4-E,318,293,26
 Edgardo Torres,"6. Turns off airconditioning units, all lights, and make sure that the whiteboard is clean before dismissing the class.",3,BSIT 4-E,318,293,27
 Edgardo Torres,"1. Projects self-confidence; respects the opinions, suggestions, and comments of students.",3,BSIT 4-E,318,293,28
 Edgardo Torres,2. Projects a respectable and a decent image.,3,BSIT 4-E,318,293,29
 Edgardo Torres,3. Practices what he/she preaches/advises.,4,BSIT 4-E,318,293,30
 Edgardo Torres,4. Manifests and promotes the Benedictine charism of work and prayer.,5,BSIT 4-E,318,293,31
 Edgardo Torres,5. Integrates positive values in the lesson.,3,BSIT 4-E,318,293,32
 Edgardo Torres,6. Recognizes students' participation in institutional activities by giving proper considerations.,5,BSIT 4-E,318,293,33
 Edgardo Torres,7. Comes to class on regularly.,3,BSIT 4-E,318,293,34
 Edgardo Torres,8. Comes to class on time.,5,BSIT 4-E,318,293,35
 Edgardo Torres,9. Is approachable and encourages students to consult him/her for assistance.,3,BSIT 4-E,318,293,36
 Edgardo Torres,1. Starts the lesson in an interesting manner.,4,BSIT 4-E,318,143,1
 Edgardo Torres,2. Clarifies the objective/s of the lesson.,4,BSIT 4-E,318,143,2
 Edgardo Torres,3. Makes the lesson practical and relevant by relating it with everyday living.,4,BSIT 4-E,318,143,3
 Edgardo Torres,4. Relates the lesson with current issues and other subject areas whenever possible.,5,BSIT 4-E,318,143,4
 Edgardo Torres,"5. Facilitates student's understanding by rephrasing questions using synonyms, giving examples and the like.",5,BSIT 4-E,318,143,5
 Edgardo Torres,6. Formulates questions that challenge the student's imagination or reasoning ability.,4,BSIT 4-E,318,143,6
 Edgardo Torres,7. Gives student's learning tasks; exercises related to the topics learned/being learned.,4,BSIT 4-E,318,143,7
 Edgardo Torres,8. Uses instructional time productively by properly apportioning it to all class activities.,5,BSIT 4-E,318,143,8
 Edgardo Torres,9. Encourages maximum participation of the students in all activities.,5,BSIT 4-E,318,143,9
 Edgardo Torres,"10. Makes use of the whiteboard and other audiovisual materials like pictures, graphs, and outlines to make the lesson more interesting.",4,BSIT 4-E,318,143,10
 Edgardo Torres,"11. Provides students with more opportunities for learning by giving assignments, research work, and the like which could be accomplished.",4,BSIT 4-E,318,143,11
 Edgardo Torres,12. Encourages students to ask intelligent and relevant questions.,4,BSIT 4-E,318,143,12
 Edgardo Torres,13. Establishes continuity and unity of present and previous lessons. Summarizes the lesson to bring out important points.,5,BSIT 4-E,318,143,13
 Edgardo Torres,14. Evaluates students performance by giving quizzes from time to time.,3,BSIT 4-E,318,143,14
 Edgardo Torres,15. Informs students of test results not later than two weeks after the exam.,4,BSIT 4-E,318,143,15
 Edgardo Torres,16. Explains the grading system and gives grades fairly.,5,BSIT 4-E,318,143,16
 Edgardo Torres,1. Presents the lessons systematically.,3,BSIT 4-E,318,143,17
 Edgardo Torres,2. Explains the lesson/objectives clearly.,5,BSIT 4-E,318,143,18
 Edgardo Torres,3. Answers question of the students intelligently and satisfactorily.,5,BSIT 4-E,318,143,19
 Edgardo Torres,1. Speaks correct English and/or Filipino and communicates his/her ideas well.,5,BSIT 4-E,318,143,20
 Edgardo Torres,2. Has a loud voice enough to be heard by everyone in class.,5,BSIT 4-E,318,143,21
 Edgardo Torres,1. Sees to it that the room is clean and orderly at all times.,3,BSIT 4-E,318,143,22
 Edgardo Torres,2. Maintains classroom discipline.,5,BSIT 4-E,318,143,23
 Edgardo Torres,3. Checks the attendance of students.,4,BSIT 4-E,318,143,24
 Edgardo Torres,4. Sees to it that the students wear the prescribed uniform.,5,BSIT 4-E,318,143,25
 Edgardo Torres,5. Sees to it that all teaching materials like whiteboard marker and erasers are prepared.,4,BSIT 4-E,318,143,26
 Edgardo Torres,"6. Turns off airconditioning units, all lights, and make sure that the whiteboard is clean before dismissing the class.",4,BSIT 4-E,318,143,27
 Edgardo Torres,"1. Projects self-confidence; respects the opinions, suggestions, and comments of students.",4,BSIT 4-E,318,143,28
 Edgardo Torres,2. Projects a respectable and a decent image.,5,BSIT 4-E,318,143,29
 Edgardo Torres,3. Practices what he/she preaches/advises.,5,BSIT 4-E,318,143,30
 Edgardo Torres,4. Manifests and promotes the Benedictine charism of work and prayer.,3,BSIT 4-E,318,143,31
 Edgardo Torres,5. Integrates positive values in the lesson.,5,BSIT 4-E,318,143,32
 Edgardo Torres,6. Recognizes students' participation in institutional activities by giving proper considerations.,4,BSIT 4-E,318,143,33
 Edgardo Torres,7. Comes to class on regularly.,5,BSIT 4-E,318,143,34
 Edgardo Torres,8. Comes to class on time.,5,BSIT 4-E,318,143,35
 Edgardo Torres,9. Is approachable and encourages students to consult him/her for assistance.,4,BSIT 4-E,318,143,36
 Edgardo Torres,1. Starts the lesson in an interesting manner.,3,BSIT 4-E,318,293,1
 Edgardo Torres,2. Clarifies the objective/s of the lesson.,3,BSIT 4-E,318,293,2
 Edgardo Torres,3. Makes the lesson practical and relevant by relating it with everyday living.,3,BSIT 4-E,318,293,3
 Edgardo Torres,4. Relates the lesson with current issues and other subject areas whenever possible.,4,BSIT 4-E,318,293,4
 Edgardo Torres,"5. Facilitates student's understanding by rephrasing questions using synonyms, giving examples and the like.",3,BSIT 4-E,318,293,5
 Edgardo Torres,6. Formulates questions that challenge the student's imagination or reasoning ability.,5,BSIT 4-E,318,293,6
 Edgardo Torres,7. Gives student's learning tasks; exercises related to the topics learned/being learned.,5,BSIT 4-E,318,293,7
 Edgardo Torres,8. Uses instructional time productively by properly apportioning it to all class activities.,5,BSIT 4-E,318,293,8
 Edgardo Torres,9. Encourages maximum participation of the students in all activities.,3,BSIT 4-E,318,293,9
 Edgardo Torres,"10. Makes use of the whiteboard and other audiovisual materials like pictures, graphs, and outlines to make the lesson more interesting.",4,BSIT 4-E,318,293,10
 Edgardo Torres,"11. Provides students with more opportunities for learning by giving assignments, research work, and the like which could be accomplished.",3,BSIT 4-E,318,293,11
 Edgardo Torres,12. Encourages students to ask intelligent and relevant questions.,3,BSIT 4-E,318,293,12
 Edgardo Torres,13. Establishes continuity and unity of present and previous lessons. Summarizes the lesson to bring out important points.,5,BSIT 4-E,318,293,13
 Edgardo Torres,14. Evaluates students performance by giving quizzes from time to time.,5,BSIT 4-E,318,293,14
 Edgardo Torres,15. Informs students of test results not later than two weeks after the exam.,3,BSIT 4-E,318,293,15
 Edgardo Torres,16. Explains the grading system and gives grades fairly.,5,BSIT 4-E,318,293,16
 Edgardo Torres,1. Presents the lessons systematically.,4,BSIT 4-E,318,293,17
 Edgardo Torres,2. Explains the lesson/objectives clearly.,3,BSIT 4-E,318,293,18
 Edgardo Torres,3. Answers question of the students intelligently and satisfactorily.,3,BSIT 4-E,318,293,19
 Edgardo Torres,1. Speaks correct English and/or Filipino and communicates his/her ideas well.,3,BSIT 4-E,318,293,20
 Edgardo Torres,2. Has a loud voice enough to be heard by everyone in class.,3,BSIT 4-E,318,293,21
 Edgardo Torres,1. Sees to it that the room is clean and orderly at all times.,4,BSIT 4-E,318,293,22
 Edgardo Torres,2. Maintains classroom discipline.,3,BSIT 4-E,318,293,23
 Edgardo Torres,3. Checks the attendance of students.,3,BSIT 4-E,318,293,24
 Edgardo Torres,4. Sees to it that the students wear the prescribed uniform.,4,BSIT 4-E,318,293,25
 Edgardo Torres,5. Sees to it that all teaching materials like whiteboard marker and erasers are prepared.,5,BSIT 4-E,318,293,26
 Edgardo Torres,"6. Turns off airconditioning units, all lights, and make sure that the whiteboard is clean before dismissing the class.",3,BSIT 4-E,318,293,27
 Edgardo Torres,"1. Projects self-confidence; respects the opinions, suggestions, and comments of students.",4,BSIT 4-E,318,293,28
 Edgardo Torres,2. Projects a respectable and a decent image.,5,BSIT 4-E,318,293,29
 Edgardo Torres,3. Practices what he/she preaches/advises.,4,BSIT 4-E,318,293,30
 Edgardo Torres,4. Manifests and promotes the Benedictine charism of work and prayer.,4,BSIT 4-E,318,293,31
 Edgardo Torres,5. Integrates positive values in the lesson.,5,BSIT 4-E,318,293,32
 Edgardo Torres,6. Recognizes students' participation in institutional activities by giving proper considerations.,3,BSIT 4-E,318,293,33
 Edgardo Torres,7. Comes to class on regularly.,5,BSIT 4-E,318,293,34
 Edgardo Torres,8. Comes to class on time.,5,BSIT 4-E,318,293,35
 Edgardo Torres,9. Is approachable and encourages students to consult him/her for assistance.,5,BSIT 4-E,318,293,36
 Consuelo C. Ponce,1. Starts the lesson in an interesting manner.,5,BSIT 4-E,321,53,1
 Consuelo C. Ponce,2. Clarifies the objective/s of the lesson.,3,BSIT 4-E,321,53,2
 Consuelo C. Ponce,3. Makes the lesson practical and relevant by relating it with everyday living.,4,BSIT 4-E,321,53,3
 Consuelo C. Ponce,4. Relates the lesson with current issues and other subject areas whenever possible.,4,BSIT 4-E,321,53,4
 Consuelo C. Ponce,"5. Facilitates student's understanding by rephrasing questions using synonyms, giving examples and the like.",3,BSIT 4-E,321,53,5
 Consuelo C. Ponce,6. Formulates questions that challenge the student's imagination or reasoning ability.,5,BSIT 4-E,321,53,6
 Consuelo C. Ponce,7. Gives student's learning tasks; exercises related to the topics learned/being learned.,4,BSIT 4-E,321,53,7
 Consuelo C. Ponce,8. Uses instructional time productively by properly apportioning it to all class activities.,5,BSIT 4-E,321,53,8
 Consuelo C. Ponce,9. Encourages maximum participation of the students in all activities.,3,BSIT 4-E,321,53,9
 Consuelo C. Ponce,"10. Makes use of the whiteboard and other audiovisual materials like pictures, graphs, and outlines to make the lesson more interesting.",4,BSIT 4-E,321,53,10
 Consuelo C. Ponce,"11. Provides students with more opportunities for learning by giving assignments, research work, and the like which could be accomplished.",3,BSIT 4-E,321,53,11
 Consuelo C. Ponce,12. Encourages students to ask intelligent and relevant questions.,4,BSIT 4-E,321,53,12
 Consuelo C. Ponce,13. Establishes continuity and unity of present and previous lessons. Summarizes the lesson to bring out important points.,5,BSIT 4-E,321,53,13
 Consuelo C. Ponce,14. Evaluates students performance by giving quizzes from time to time.,4,BSIT 4-E,321,53,14
 Consuelo C. Ponce,15. Informs students of test results not later than two weeks after the exam.,5,BSIT 4-E,321,53,15
 Consuelo C. Ponce,16. Explains the grading system and gives grades fairly.,5,BSIT 4-E,321,53,16
 Consuelo C. Ponce,1. Presents the lessons systematically.,5,BSIT 4-E,321,53,17
 Consuelo C. Ponce,2. Explains the lesson/objectives clearly.,4,BSIT 4-E,321,53,18
 Consuelo C. Ponce,3. Answers question of the students intelligently and satisfactorily.,5,BSIT 4-E,321,53,19
 Consuelo C. Ponce,1. Speaks correct English and/or Filipino and communicates his/her ideas well.,4,BSIT 4-E,321,53,20
 Consuelo C. Ponce,2. Has a loud voice enough to be heard by everyone in class.,5,BSIT 4-E,321,53,21
 Consuelo C. Ponce,1. Sees to it that the room is clean and orderly at all times.,3,BSIT 4-E,321,53,22
 Consuelo C. Ponce,2. Maintains classroom discipline.,5,BSIT 4-E,321,53,23
 Consuelo C. Ponce,3. Checks the attendance of students.,5,BSIT 4-E,321,53,24
 Consuelo C. Ponce,4. Sees to it that the students wear the prescribed uniform.,4,BSIT 4-E,321,53,25
 Consuelo C. Ponce,5. Sees to it that all teaching materials like whiteboard marker and erasers are prepared.,5,BSIT 4-E,321,53,26
 Consuelo C. Ponce,"6. Turns off airconditioning units, all lights, and make sure that the whiteboard is clean before dismissing the class.",5,BSIT 4-E,321,53,27
 Consuelo C. Ponce,"1. Projects self-confidence; respects the opinions, suggestions, and comments of students.",3,BSIT 4-E,321,53,28
 Consuelo C. Ponce,2. Projects a respectable and a decent image.,4,BSIT 4-E,321,53,29
 Consuelo C. Ponce,3. Practices what he/she preaches/advises.,4,BSIT 4-E,321,53,30
 Consuelo C. Ponce,4. Manifests and promotes the Benedictine charism of work and prayer.,3,BSIT 4-E,321,53,31
 Consuelo C. Ponce,5. Integrates positive values in the lesson.,5,BSIT 4-E,321,53,32
 Consuelo C. Ponce,6. Recognizes students' participation in institutional activities by giving proper considerations.,5,BSIT 4-E,321,53,33
 Consuelo C. Ponce,7. Comes to class on regularly.,3,BSIT 4-E,321,53,34
 Consuelo C. Ponce,8. Comes to class on time.,4,BSIT 4-E,321,53,35
 Consuelo C. Ponce,9. Is approachable and encourages students to consult him/her for assistance.,3,BSIT 4-E,321,53,36
 Consuelo C. Ponce,1. Starts the lesson in an interesting manner.,5,BSIT 4-E,321,214,1
 Consuelo C. Ponce,2. Clarifies the objective/s of the lesson.,3,BSIT 4-E,321,214,2
 Consuelo C. Ponce,3. Makes the lesson practical and relevant by relating it with everyday living.,4,BSIT 4-E,321,214,3
 Consuelo C. Ponce,4. Relates the lesson with current issues and other subject areas whenever possible.,4,BSIT 4-E,321,214,4
 Consuelo C. Ponce,"5. Facilitates student's understanding by rephrasing questions using synonyms, giving examples and the like.",4,BSIT 4-E,321,214,5
 Consuelo C. Ponce,6. Formulates questions that challenge the student's imagination or reasoning ability.,5,BSIT 4-E,321,214,6
 Consuelo C. Ponce,7. Gives student's learning tasks; exercises related to the topics learned/being learned.,4,BSIT 4-E,321,214,7
 Consuelo C. Ponce,8. Uses instructional time productively by properly apportioning it to all class activities.,4,BSIT 4-E,321,214,8
 Consuelo C. Ponce,9. Encourages maximum participation of the students in all activities.,4,BSIT 4-E,321,214,9
 Consuelo C. Ponce,"10. Makes use of the whiteboard and other audiovisual materials like pictures, graphs, and outlines to make the lesson more interesting.",4,BSIT 4-E,321,214,10
 Consuelo C. Ponce,"11. Provides students with more opportunities for learning by giving assignments, research work, and the like which could be accomplished.",5,BSIT 4-E,321,214,11
 Consuelo C. Ponce,12. Encourages students to ask intelligent and relevant questions.,4,BSIT 4-E,321,214,12
 Consuelo C. Ponce,13. Establishes continuity and unity of present and previous lessons. Summarizes the lesson to bring out important points.,5,BSIT 4-E,321,214,13
 Consuelo C. Ponce,14. Evaluates students performance by giving quizzes from time to time.,3,BSIT 4-E,321,214,14
 Consuelo C. Ponce,15. Informs students of test results not later than two weeks after the exam.,3,BSIT 4-E,321,214,15
 Consuelo C. Ponce,16. Explains the grading system and gives grades fairly.,4,BSIT 4-E,321,214,16
 Consuelo C. Ponce,1. Presents the lessons systematically.,5,BSIT 4-E,321,214,17
 Consuelo C. Ponce,2. Explains the lesson/objectives clearly.,4,BSIT 4-E,321,214,18
 Consuelo C. Ponce,3. Answers question of the students intelligently and satisfactorily.,3,BSIT 4-E,321,214,19
 Consuelo C. Ponce,1. Speaks correct English and/or Filipino and communicates his/her ideas well.,4,BSIT 4-E,321,214,20
 Consuelo C. Ponce,2. Has a loud voice enough to be heard by everyone in class.,3,BSIT 4-E,321,214,21
 Consuelo C. Ponce,1. Sees to it that the room is clean and orderly at all times.,4,BSIT 4-E,321,214,22
 Consuelo C. Ponce,2. Maintains classroom discipline.,3,BSIT 4-E,321,214,23
 Consuelo C. Ponce,3. Checks the attendance of students.,4,BSIT 4-E,321,214,24
 Consuelo C. Ponce,4. Sees to it that the students wear the prescribed uniform.,5,BSIT 4-E,321,214,25
 Consuelo C. Ponce,5. Sees to it that all teaching materials like whiteboard marker and erasers are prepared.,5,BSIT 4-E,321,214,26
 Consuelo C. Ponce,"6. Turns off airconditioning units, all lights, and make sure that the whiteboard is clean before dismissing the class.",5,BSIT 4-E,321,214,27
 Consuelo C. Ponce,"1. Projects self-confidence; respects the opinions, suggestions, and comments of students.",3,BSIT 4-E,321,214,28
 Consuelo C. Ponce,2. Projects a respectable and a decent image.,5,BSIT 4-E,321,214,29
 Consuelo C. Ponce,3. Practices what he/she preaches/advises.,4,BSIT 4-E,321,214,30
 Consuelo C. Ponce,4. Manifests and promotes the Benedictine charism of work and prayer.,3,BSIT 4-E,321,214,31
 Consuelo C. Ponce,5. Integrates positive values in the lesson.,5,BSIT 4-E,321,214,32
 Consuelo C. Ponce,6. Recognizes students' participation in institutional activities by giving proper considerations.,3,BSIT 4-E,321,214,33
 Consuelo C. Ponce,7. Comes to class on regularly.,3,BSIT 4-E,321,214,34
 Consuelo C. Ponce,8. Comes to class on time.,5,BSIT 4-E,321,214,35
 Consuelo C. Ponce,9. Is approachable and encourages students to consult him/her for assistance.,4,BSIT 4-E,321,214,36
 Consuelo C. Ponce,1. Starts the lesson in an interesting manner.,4,BSIT 4-E,321,287,1
 Consuelo C. Ponce,2. Clarifies the objective/s of the lesson.,5,BSIT 4-E,321,287,2
 Consuelo C. Ponce,3. Makes the lesson practical and relevant by relating it with everyday living.,4,BSIT 4-E,321,287,3
 Consuelo C. Ponce,4. Relates the lesson with current issues and other subject areas whenever possible.,3,BSIT 4-E,321,287,4
 Consuelo C. Ponce,"5. Facilitates student's understanding by rephrasing questions using synonyms, giving examples and the like.",3,BSIT 4-E,321,287,5
 Consuelo C. Ponce,6. Formulates questions that challenge the student's imagination or reasoning ability.,4,BSIT 4-E,321,287,6
 Consuelo C. Ponce,7. Gives student's learning tasks; exercises related to the topics learned/being learned.,4,BSIT 4-E,321,287,7
 Consuelo C. Ponce,8. Uses instructional time productively by properly apportioning it to all class activities.,5,BSIT 4-E,321,287,8
 Consuelo C. Ponce,9. Encourages maximum participation of the students in all activities.,4,BSIT 4-E,321,287,9
 Consuelo C. Ponce,"10. Makes use of the whiteboard and other audiovisual materials like pictures, graphs, and outlines to make the lesson more interesting.",4,BSIT 4-E,321,287,10
 Consuelo C. Ponce,"11. Provides students with more opportunities for learning by giving assignments, research work, and the like which could be accomplished.",5,BSIT 4-E,321,287,11
 Consuelo C. Ponce,12. Encourages students to ask intelligent and relevant questions.,3,BSIT 4-E,321,287,12
 Consuelo C. Ponce,13. Establishes continuity and unity of present and previous lessons. Summarizes the lesson to bring out important points.,5,BSIT 4-E,321,287,13
 Consuelo C. Ponce,14. Evaluates students performance by giving quizzes from time to time.,4,BSIT 4-E,321,287,14
 Consuelo C. Ponce,15. Informs students of test results not later than two weeks after the exam.,4,BSIT 4-E,321,287,15
 Consuelo C. Ponce,16. Explains the grading system and gives grades fairly.,4,BSIT 4-E,321,287,16
 Consuelo C. Ponce,1. Presents the lessons systematically.,4,BSIT 4-E,321,287,17
 Consuelo C. Ponce,2. Explains the lesson/objectives clearly.,3,BSIT 4-E,321,287,18
 Consuelo C. Ponce,3. Answers question of the students intelligently and satisfactorily.,3,BSIT 4-E,321,287,19
 Consuelo C. Ponce,1. Speaks correct English and/or Filipino and communicates his/her ideas well.,3,BSIT 4-E,321,287,20
 Consuelo C. Ponce,2. Has a loud voice enough to be heard by everyone in class.,4,BSIT 4-E,321,287,21
 Consuelo C. Ponce,1. Sees to it that the room is clean and orderly at all times.,5,BSIT 4-E,321,287,22
 Consuelo C. Ponce,2. Maintains classroom discipline.,3,BSIT 4-E,321,287,23
 Consuelo C. Ponce,3. Checks the attendance of students.,5,BSIT 4-E,321,287,24
 Consuelo C. Ponce,4. Sees to it that the students wear the prescribed uniform.,5,BSIT 4-E,321,287,25
 Consuelo C. Ponce,5. Sees to it that all teaching materials like whiteboard marker and erasers are prepared.,5,BSIT 4-E,321,287,26
 Consuelo C. Ponce,"6. Turns off airconditioning units, all lights, and make sure that the whiteboard is clean before dismissing the class.",3,BSIT 4-E,321,287,27
 Consuelo C. Ponce,"1. Projects self-confidence; respects the opinions, suggestions, and comments of students.",3,BSIT 4-E,321,287,28
 Consuelo C. Ponce,2. Projects a respectable and a decent image.,4,BSIT 4-E,321,287,29
 Consuelo C. Ponce,3. Practices what he/she preaches/advises.,3,BSIT 4-E,321,287,30
 Consuelo C. Ponce,4. Manifests and promotes the Benedictine charism of work and prayer.,5,BSIT 4-E,321,287,31
 Consuelo C. Ponce,5. Integrates positive values in the lesson.,3,BSIT 4-E,321,287,32
 Consuelo C. Ponce,6. Recognizes students' participation in institutional activities by giving proper considerations.,3,BSIT 4-E,321,287,33
 Consuelo C. Ponce,7. Comes to class on regularly.,5,BSIT 4-E,321,287,34
 Consuelo C. Ponce,8. Comes to class on time.,5,BSIT 4-E,321,287,35
 Consuelo C. Ponce,9. Is approachable and encourages students to consult him/her for assistance.,3,BSIT 4-E,321,287,36
 Consuelo C. Ponce,1. Starts the lesson in an interesting manner.,3,BSIT 4-E,321,307,1
 Consuelo C. Ponce,2. Clarifies the objective/s of the lesson.,4,BSIT 4-E,321,307,2
 Consuelo C. Ponce,3. Makes the lesson practical and relevant by relating it with everyday living.,3,BSIT 4-E,321,307,3
 Consuelo C. Ponce,4. Relates the lesson with current issues and other subject areas whenever possible.,5,BSIT 4-E,321,307,4
 Consuelo C. Ponce,"5. Facilitates student's understanding by rephrasing questions using synonyms, giving examples and the like.",3,BSIT 4-E,321,307,5
 Consuelo C. Ponce,6. Formulates questions that challenge the student's imagination or reasoning ability.,5,BSIT 4-E,321,307,6
 Consuelo C. Ponce,7. Gives student's learning tasks; exercises related to the topics learned/being learned.,4,BSIT 4-E,321,307,7
 Consuelo C. Ponce,8. Uses instructional time productively by properly apportioning it to all class activities.,5,BSIT 4-E,321,307,8
 Consuelo C. Ponce,9. Encourages maximum participation of the students in all activities.,3,BSIT 4-E,321,307,9
 Consuelo C. Ponce,"10. Makes use of the whiteboard and other audiovisual materials like pictures, graphs, and outlines to make the lesson more interesting.",3,BSIT 4-E,321,307,10
 Consuelo C. Ponce,"11. Provides students with more opportunities for learning by giving assignments, research work, and the like which could be accomplished.",5,BSIT 4-E,321,307,11
 Consuelo C. Ponce,12. Encourages students to ask intelligent and relevant questions.,3,BSIT 4-E,321,307,12
 Consuelo C. Ponce,13. Establishes continuity and unity of present and previous lessons. Summarizes the lesson to bring out important points.,5,BSIT 4-E,321,307,13
 Consuelo C. Ponce,14. Evaluates students performance by giving quizzes from time to time.,5,BSIT 4-E,321,307,14
 Consuelo C. Ponce,15. Informs students of test results not later than two weeks after the exam.,4,BSIT 4-E,321,307,15
 Consuelo C. Ponce,16. Explains the grading system and gives grades fairly.,4,BSIT 4-E,321,307,16
 Consuelo C. Ponce,1. Presents the lessons systematically.,5,BSIT 4-E,321,307,17
 Consuelo C. Ponce,2. Explains the lesson/objectives clearly.,3,BSIT 4-E,321,307,18
 Consuelo C. Ponce,3. Answers question of the students intelligently and satisfactorily.,3,BSIT 4-E,321,307,19
 Consuelo C. Ponce,1. Speaks correct English and/or Filipino and communicates his/her ideas well.,4,BSIT 4-E,321,307,20
 Consuelo C. Ponce,2. Has a loud voice enough to be heard by everyone in class.,4,BSIT 4-E,321,307,21
 Consuelo C. Ponce,1. Sees to it that the room is clean and orderly at all times.,4,BSIT 4-E,321,307,22
 Consuelo C. Ponce,2. Maintains classroom discipline.,3,BSIT 4-E,321,307,23
 Consuelo C. Ponce,3. Checks the attendance of students.,4,BSIT 4-E,321,307,24
 Consuelo C. Ponce,4. Sees to it that the students wear the prescribed uniform.,3,BSIT 4-E,321,307,25
 Consuelo C. Ponce,5. Sees to it that all teaching materials like whiteboard marker and erasers are prepared.,3,BSIT 4-E,321,307,26
 Consuelo C. Ponce,"6. Turns off airconditioning units, all lights, and make sure that the whiteboard is clean before dismissing the class.",5,BSIT 4-E,321,307,27
 Consuelo C. Ponce,"1. Projects self-confidence; respects the opinions, suggestions, and comments of students.",4,BSIT 4-E,321,307,28
 Consuelo C. Ponce,2. Projects a respectable and a decent image.,3,BSIT 4-E,321,307,29
 Consuelo C. Ponce,3. Practices what he/she preaches/advises.,4,BSIT 4-E,321,307,30
 Consuelo C. Ponce,4. Manifests and promotes the Benedictine charism of work and prayer.,5,BSIT 4-E,321,307,31
 Consuelo C. Ponce,5. Integrates positive values in the lesson.,3,BSIT 4-E,321,307,32
 Consuelo C. Ponce,6. Recognizes students' participation in institutional activities by giving proper considerations.,4,BSIT 4-E,321,307,33
 Consuelo C. Ponce,7. Comes to class on regularly.,5,BSIT 4-E,321,307,34
 Consuelo C. Ponce,8. Comes to class on time.,3,BSIT 4-E,321,307,35
 Consuelo C. Ponce,9. Is approachable and encourages students to consult him/her for assistance.,5,BSIT 4-E,321,307,36
 Consuelo C. Ponce,1. Starts the lesson in an interesting manner.,4,BSIT 4-E,321,293,1
 Consuelo C. Ponce,2. Clarifies the objective/s of the lesson.,5,BSIT 4-E,321,293,2
 Consuelo C. Ponce,3. Makes the lesson practical and relevant by relating it with everyday living.,4,BSIT 4-E,321,293,3
 Consuelo C. Ponce,4. Relates the lesson with current issues and other subject areas whenever possible.,3,BSIT 4-E,321,293,4
 Consuelo C. Ponce,"5. Facilitates student's understanding by rephrasing questions using synonyms, giving examples and the like.",4,BSIT 4-E,321,293,5
 Consuelo C. Ponce,6. Formulates questions that challenge the student's imagination or reasoning ability.,4,BSIT 4-E,321,293,6
 Consuelo C. Ponce,7. Gives student's learning tasks; exercises related to the topics learned/being learned.,3,BSIT 4-E,321,293,7
 Consuelo C. Ponce,8. Uses instructional time productively by properly apportioning it to all class activities.,3,BSIT 4-E,321,293,8
 Consuelo C. Ponce,9. Encourages maximum participation of the students in all activities.,4,BSIT 4-E,321,293,9
 Consuelo C. Ponce,"10. Makes use of the whiteboard and other audiovisual materials like pictures, graphs, and outlines to make the lesson more interesting.",5,BSIT 4-E,321,293,10
 Consuelo C. Ponce,"11. Provides students with more opportunities for learning by giving assignments, research work, and the like which could be accomplished.",4,BSIT 4-E,321,293,11
 Consuelo C. Ponce,12. Encourages students to ask intelligent and relevant questions.,5,BSIT 4-E,321,293,12
 Consuelo C. Ponce,13. Establishes continuity and unity of present and previous lessons. Summarizes the lesson to bring out important points.,4,BSIT 4-E,321,293,13
 Consuelo C. Ponce,14. Evaluates students performance by giving quizzes from time to time.,3,BSIT 4-E,321,293,14
 Consuelo C. Ponce,15. Informs students of test results not later than two weeks after the exam.,5,BSIT 4-E,321,293,15
 Consuelo C. Ponce,16. Explains the grading system and gives grades fairly.,3,BSIT 4-E,321,293,16
 Consuelo C. Ponce,1. Presents the lessons systematically.,5,BSIT 4-E,321,293,17
 Consuelo C. Ponce,2. Explains the lesson/objectives clearly.,4,BSIT 4-E,321,293,18
 Consuelo C. Ponce,3. Answers question of the students intelligently and satisfactorily.,5,BSIT 4-E,321,293,19
 Consuelo C. Ponce,1. Speaks correct English and/or Filipino and communicates his/her ideas well.,4,BSIT 4-E,321,293,20
 Consuelo C. Ponce,2. Has a loud voice enough to be heard by everyone in class.,4,BSIT 4-E,321,293,21
 Consuelo C. Ponce,1. Sees to it that the room is clean and orderly at all times.,4,BSIT 4-E,321,293,22
 Consuelo C. Ponce,2. Maintains classroom discipline.,4,BSIT 4-E,321,293,23
 Consuelo C. Ponce,3. Checks the attendance of students.,4,BSIT 4-E,321,293,24
 Consuelo C. Ponce,4. Sees to it that the students wear the prescribed uniform.,5,BSIT 4-E,321,293,25
 Consuelo C. Ponce,5. Sees to it that all teaching materials like whiteboard marker and erasers are prepared.,4,BSIT 4-E,321,293,26
 Consuelo C. Ponce,"6. Turns off airconditioning units, all lights, and make sure that the whiteboard is clean before dismissing the class.",4,BSIT 4-E,321,293,27
 Consuelo C. Ponce,"1. Projects self-confidence; respects the opinions, suggestions, and comments of students.",3,BSIT 4-E,321,293,28
 Consuelo C. Ponce,2. Projects a respectable and a decent image.,4,BSIT 4-E,321,293,29
 Consuelo C. Ponce,3. Practices what he/she preaches/advises.,3,BSIT 4-E,321,293,30
 Consuelo C. Ponce,4. Manifests and promotes the Benedictine charism of work and prayer.,3,BSIT 4-E,321,293,31
 Consuelo C. Ponce,5. Integrates positive values in the lesson.,5,BSIT 4-E,321,293,32
 Consuelo C. Ponce,6. Recognizes students' participation in institutional activities by giving proper considerations.,5,BSIT 4-E,321,293,33
 Consuelo C. Ponce,7. Comes to class on regularly.,4,BSIT 4-E,321,293,34
 Consuelo C. Ponce,8. Comes to class on time.,5,BSIT 4-E,321,293,35
 Consuelo C. Ponce,9. Is approachable and encourages students to consult him/her for assistance.,5,BSIT 4-E,321,293,36
 Consuelo C. Ponce,1. Starts the lesson in an interesting manner.,4,BSIT 4-E,321,293,1
 Consuelo C. Ponce,2. Clarifies the objective/s of the lesson.,3,BSIT 4-E,321,293,2
 Consuelo C. Ponce,3. Makes the lesson practical and relevant by relating it with everyday living.,4,BSIT 4-E,321,293,3
 Consuelo C. Ponce,4. Relates the lesson with current issues and other subject areas whenever possible.,4,BSIT 4-E,321,293,4
 Consuelo C. Ponce,"5. Facilitates student's understanding by rephrasing questions using synonyms, giving examples and the like.",5,BSIT 4-E,321,293,5
 Consuelo C. Ponce,6. Formulates questions that challenge the student's imagination or reasoning ability.,4,BSIT 4-E,321,293,6
 Consuelo C. Ponce,7. Gives student's learning tasks; exercises related to the topics learned/being learned.,3,BSIT 4-E,321,293,7
 Consuelo C. Ponce,8. Uses instructional time productively by properly apportioning it to all class activities.,4,BSIT 4-E,321,293,8
 Consuelo C. Ponce,9. Encourages maximum participation of the students in all activities.,3,BSIT 4-E,321,293,9
 Consuelo C. Ponce,"10. Makes use of the whiteboard and other audiovisual materials like pictures, graphs, and outlines to make the lesson more interesting.",5,BSIT 4-E,321,293,10
 Consuelo C. Ponce,"11. Provides students with more opportunities for learning by giving assignments, research work, and the like which could be accomplished.",4,BSIT 4-E,321,293,11
 Consuelo C. Ponce,12. Encourages students to ask intelligent and relevant questions.,4,BSIT 4-E,321,293,12
 Consuelo C. Ponce,13. Establishes continuity and unity of present and previous lessons. Summarizes the lesson to bring out important points.,5,BSIT 4-E,321,293,13
 Consuelo C. Ponce,14. Evaluates students performance by giving quizzes from time to time.,5,BSIT 4-E,321,293,14
 Consuelo C. Ponce,15. Informs students of test results not later than two weeks after the exam.,3,BSIT 4-E,321,293,15
 Consuelo C. Ponce,16. Explains the grading system and gives grades fairly.,5,BSIT 4-E,321,293,16
 Consuelo C. Ponce,1. Presents the lessons systematically.,3,BSIT 4-E,321,293,17
 Consuelo C. Ponce,2. Explains the lesson/objectives clearly.,5,BSIT 4-E,321,293,18
 Consuelo C. Ponce,3. Answers question of the students intelligently and satisfactorily.,5,BSIT 4-E,321,293,19
 Consuelo C. Ponce,1. Speaks correct English and/or Filipino and communicates his/her ideas well.,5,BSIT 4-E,321,293,20
 Consuelo C. Ponce,2. Has a loud voice enough to be heard by everyone in class.,4,BSIT 4-E,321,293,21
 Consuelo C. Ponce,1. Sees to it that the room is clean and orderly at all times.,4,BSIT 4-E,321,293,22
 Consuelo C. Ponce,2. Maintains classroom discipline.,5,BSIT 4-E,321,293,23
 Consuelo C. Ponce,3. Checks the attendance of students.,5,BSIT 4-E,321,293,24
 Consuelo C. Ponce,4. Sees to it that the students wear the prescribed uniform.,5,BSIT 4-E,321,293,25
 Consuelo C. Ponce,5. Sees to it that all teaching materials like whiteboard marker and erasers are prepared.,4,BSIT 4-E,321,293,26
 Consuelo C. Ponce,"6. Turns off airconditioning units, all lights, and make sure that the whiteboard is clean before dismissing the class.",5,BSIT 4-E,321,293,27
 Consuelo C. Ponce,"1. Projects self-confidence; respects the opinions, suggestions, and comments of students.",3,BSIT 4-E,321,293,28
 Consuelo C. Ponce,2. Projects a respectable and a decent image.,3,BSIT 4-E,321,293,29
 Consuelo C. Ponce,3. Practices what he/she preaches/advises.,4,BSIT 4-E,321,293,30
 Consuelo C. Ponce,4. Manifests and promotes the Benedictine charism of work and prayer.,4,BSIT 4-E,321,293,31
 Consuelo C. Ponce,5. Integrates positive values in the lesson.,3,BSIT 4-E,321,293,32
 Consuelo C. Ponce,6. Recognizes students' participation in institutional activities by giving proper considerations.,3,BSIT 4-E,321,293,33
 Consuelo C. Ponce,7. Comes to class on regularly.,3,BSIT 4-E,321,293,34
 Consuelo C. Ponce,8. Comes to class on time.,4,BSIT 4-E,321,293,35
 Consuelo C. Ponce,9. Is approachable and encourages students to consult him/her for assistance.,5,BSIT 4-E,321,293,36
 Consuelo C. Ponce,1. Starts the lesson in an interesting manner.,3,BSIT 4-E,321,293,1
 Consuelo C. Ponce,2. Clarifies the objective/s of the lesson.,5,BSIT 4-E,321,293,2
 Consuelo C. Ponce,3. Makes the lesson practical and relevant by relating it with everyday living.,3,BSIT 4-E,321,293,3
 Consuelo C. Ponce,4. Relates the lesson with current issues and other subject areas whenever possible.,5,BSIT 4-E,321,293,4
 Consuelo C. Ponce,"5. Facilitates student's understanding by rephrasing questions using synonyms, giving examples and the like.",4,BSIT 4-E,321,293,5
 Consuelo C. Ponce,6. Formulates questions that challenge the student's imagination or reasoning ability.,5,BSIT 4-E,321,293,6
 Consuelo C. Ponce,7. Gives student's learning tasks; exercises related to the topics learned/being learned.,4,BSIT 4-E,321,293,7
 Consuelo C. Ponce,8. Uses instructional time productively by properly apportioning it to all class activities.,3,BSIT 4-E,321,293,8
 Consuelo C. Ponce,9. Encourages maximum participation of the students in all activities.,5,BSIT 4-E,321,293,9
 Consuelo C. Ponce,"10. Makes use of the whiteboard and other audiovisual materials like pictures, graphs, and outlines to make the lesson more interesting.",5,BSIT 4-E,321,293,10
 Consuelo C. Ponce,"11. Provides students with more opportunities for learning by giving assignments, research work, and the like which could be accomplished.",4,BSIT 4-E,321,293,11
 Consuelo C. Ponce,12. Encourages students to ask intelligent and relevant questions.,3,BSIT 4-E,321,293,12
 Consuelo C. Ponce,13. Establishes continuity and unity of present and previous lessons. Summarizes the lesson to bring out important points.,5,BSIT 4-E,321,293,13
 Consuelo C. Ponce,14. Evaluates students performance by giving quizzes from time to time.,3,BSIT 4-E,321,293,14
 Consuelo C. Ponce,15. Informs students of test results not later than two weeks after the exam.,4,BSIT 4-E,321,293,15
 Consuelo C. Ponce,16. Explains the grading system and gives grades fairly.,5,BSIT 4-E,321,293,16
 Consuelo C. Ponce,1. Presents the lessons systematically.,5,BSIT 4-E,321,293,17
 Consuelo C. Ponce,2. Explains the lesson/objectives clearly.,4,BSIT 4-E,321,293,18
 Consuelo C. Ponce,3. Answers question of the students intelligently and satisfactorily.,5,BSIT 4-E,321,293,19
 Consuelo C. Ponce,1. Speaks correct English and/or Filipino and communicates his/her ideas well.,3,BSIT 4-E,321,293,20
 Consuelo C. Ponce,2. Has a loud voice enough to be heard by everyone in class.,4,BSIT 4-E,321,293,21
 Consuelo C. Ponce,1. Sees to it that the room is clean and orderly at all times.,5,BSIT 4-E,321,293,22
 Consuelo C. Ponce,2. Maintains classroom discipline.,3,BSIT 4-E,321,293,23
 Consuelo C. Ponce,3. Checks the attendance of students.,3,BSIT 4-E,321,293,24
 Consuelo C. Ponce,4. Sees to it that the students wear the prescribed uniform.,5,BSIT 4-E,321,293,25
 Consuelo C. Ponce,5. Sees to it that all teaching materials like whiteboard marker and erasers are prepared.,4,BSIT 4-E,321,293,26
 Consuelo C. Ponce,"6. Turns off airconditioning units, all lights, and make sure that the whiteboard is clean before dismissing the class.",4,BSIT 4-E,321,293,27
 Consuelo C. Ponce,"1. Projects self-confidence; respects the opinions, suggestions, and comments of students.",4,BSIT 4-E,321,293,28
 Consuelo C. Ponce,2. Projects a respectable and a decent image.,3,BSIT 4-E,321,293,29
 Consuelo C. Ponce,3. Practices what he/she preaches/advises.,5,BSIT 4-E,321,293,30
 Consuelo C. Ponce,4. Manifests and promotes the Benedictine charism of work and prayer.,5,BSIT 4-E,321,293,31
 Consuelo C. Ponce,5. Integrates positive values in the lesson.,3,BSIT 4-E,321,293,32
 Consuelo C. Ponce,6. Recognizes students' participation in institutional activities by giving proper considerations.,3,BSIT 4-E,321,293,33
 Consuelo C. Ponce,7. Comes to class on regularly.,4,BSIT 4-E,321,293,34
 Consuelo C. Ponce,8. Comes to class on time.,3,BSIT 4-E,321,293,35
 Consuelo C. Ponce,9. Is approachable and encourages students to consult him/her for assistance.,4,BSIT 4-E,321,293,36
 Consuelo C. Ponce,1. Starts the lesson in an interesting manner.,3,BSIT 4-E,321,143,1
 Consuelo C. Ponce,2. Clarifies the objective/s of the lesson.,5,BSIT 4-E,321,143,2
 Consuelo C. Ponce,3. Makes the lesson practical and relevant by relating it with everyday living.,5,BSIT 4-E,321,143,3
 Consuelo C. Ponce,4. Relates the lesson with current issues and other subject areas whenever possible.,3,BSIT 4-E,321,143,4
 Consuelo C. Ponce,"5. Facilitates student's understanding by rephrasing questions using synonyms, giving examples and the like.",3,BSIT 4-E,321,143,5
 Consuelo C. Ponce,6. Formulates questions that challenge the student's imagination or reasoning ability.,3,BSIT 4-E,321,143,6
 Consuelo C. Ponce,7. Gives student's learning tasks; exercises related to the topics learned/being learned.,3,BSIT 4-E,321,143,7
 Consuelo C. Ponce,8. Uses instructional time productively by properly apportioning it to all class activities.,4,BSIT 4-E,321,143,8
 Consuelo C. Ponce,9. Encourages maximum participation of the students in all activities.,3,BSIT 4-E,321,143,9
 Consuelo C. Ponce,"10. Makes use of the whiteboard and other audiovisual materials like pictures, graphs, and outlines to make the lesson more interesting.",5,BSIT 4-E,321,143,10
 Consuelo C. Ponce,"11. Provides students with more opportunities for learning by giving assignments, research work, and the like which could be accomplished.",3,BSIT 4-E,321,143,11
 Consuelo C. Ponce,12. Encourages students to ask intelligent and relevant questions.,4,BSIT 4-E,321,143,12
 Consuelo C. Ponce,13. Establishes continuity and unity of present and previous lessons. Summarizes the lesson to bring out important points.,4,BSIT 4-E,321,143,13
 Consuelo C. Ponce,14. Evaluates students performance by giving quizzes from time to time.,3,BSIT 4-E,321,143,14
 Consuelo C. Ponce,15. Informs students of test results not later than two weeks after the exam.,5,BSIT 4-E,321,143,15
 Consuelo C. Ponce,16. Explains the grading system and gives grades fairly.,3,BSIT 4-E,321,143,16
 Consuelo C. Ponce,1. Presents the lessons systematically.,4,BSIT 4-E,321,143,17
 Consuelo C. Ponce,2. Explains the lesson/objectives clearly.,3,BSIT 4-E,321,143,18
 Consuelo C. Ponce,3. Answers question of the students intelligently and satisfactorily.,5,BSIT 4-E,321,143,19
 Consuelo C. Ponce,1. Speaks correct English and/or Filipino and communicates his/her ideas well.,3,BSIT 4-E,321,143,20
 Consuelo C. Ponce,2. Has a loud voice enough to be heard by everyone in class.,4,BSIT 4-E,321,143,21
 Consuelo C. Ponce,1. Sees to it that the room is clean and orderly at all times.,4,BSIT 4-E,321,143,22
 Consuelo C. Ponce,2. Maintains classroom discipline.,4,BSIT 4-E,321,143,23
 Consuelo C. Ponce,3. Checks the attendance of students.,4,BSIT 4-E,321,143,24
 Consuelo C. Ponce,4. Sees to it that the students wear the prescribed uniform.,3,BSIT 4-E,321,143,25
 Consuelo C. Ponce,5. Sees to it that all teaching materials like whiteboard marker and erasers are prepared.,4,BSIT 4-E,321,143,26
 Consuelo C. Ponce,"6. Turns off airconditioning units, all lights, and make sure that the whiteboard is clean before dismissing the class.",4,BSIT 4-E,321,143,27
 Consuelo C. Ponce,"1. Projects self-confidence; respects the opinions, suggestions, and comments of students.",3,BSIT 4-E,321,143,28
 Consuelo C. Ponce,2. Projects a respectable and a decent image.,4,BSIT 4-E,321,143,29
 Consuelo C. Ponce,3. Practices what he/she preaches/advises.,3,BSIT 4-E,321,143,30
 Consuelo C. Ponce,4. Manifests and promotes the Benedictine charism of work and prayer.,4,BSIT 4-E,321,143,31
 Consuelo C. Ponce,5. Integrates positive values in the lesson.,4,BSIT 4-E,321,143,32
 Consuelo C. Ponce,6. Recognizes students' participation in institutional activities by giving proper considerations.,4,BSIT 4-E,321,143,33
 Consuelo C. Ponce,7. Comes to class on regularly.,3,BSIT 4-E,321,143,34
 Consuelo C. Ponce,8. Comes to class on time.,4,BSIT 4-E,321,143,35
 Consuelo C. Ponce,9. Is approachable and encourages students to consult him/her for assistance.,3,BSIT 4-E,321,143,36
 Consuelo C. Ponce,1. Starts the lesson in an interesting manner.,4,BSIT 4-E,321,293,1
 Consuelo C. Ponce,2. Clarifies the objective/s of the lesson.,5,BSIT 4-E,321,293,2
 Consuelo C. Ponce,3. Makes the lesson practical and relevant by relating it with everyday living.,4,BSIT 4-E,321,293,3
 Consuelo C. Ponce,4. Relates the lesson with current issues and other subject areas whenever possible.,5,BSIT 4-E,321,293,4
 Consuelo C. Ponce,"5. Facilitates student's understanding by rephrasing questions using synonyms, giving examples and the like.",3,BSIT 4-E,321,293,5
 Consuelo C. Ponce,6. Formulates questions that challenge the student's imagination or reasoning ability.,5,BSIT 4-E,321,293,6
 Consuelo C. Ponce,7. Gives student's learning tasks; exercises related to the topics learned/being learned.,5,BSIT 4-E,321,293,7
 Consuelo C. Ponce,8. Uses instructional time productively by properly apportioning it to all class activities.,5,BSIT 4-E,321,293,8
 Consuelo C. Ponce,9. Encourages maximum participation of the students in all activities.,3,BSIT 4-E,321,293,9
 Consuelo C. Ponce,"10. Makes use of the whiteboard and other audiovisual materials like pictures, graphs, and outlines to make the lesson more interesting.",4,BSIT 4-E,321,293,10
 Consuelo C. Ponce,"11. Provides students with more opportunities for learning by giving assignments, research work, and the like which could be accomplished.",3,BSIT 4-E,321,293,11
 Consuelo C. Ponce,12. Encourages students to ask intelligent and relevant questions.,3,BSIT 4-E,321,293,12
 Consuelo C. Ponce,13. Establishes continuity and unity of present and previous lessons. Summarizes the lesson to bring out important points.,4,BSIT 4-E,321,293,13
 Consuelo C. Ponce,14. Evaluates students performance by giving quizzes from time to time.,5,BSIT 4-E,321,293,14
 Consuelo C. Ponce,15. Informs students of test results not later than two weeks after the exam.,3,BSIT 4-E,321,293,15
 Consuelo C. Ponce,16. Explains the grading system and gives grades fairly.,3,BSIT 4-E,321,293,16
 Consuelo C. Ponce,1. Presents the lessons systematically.,5,BSIT 4-E,321,293,17
 Consuelo C. Ponce,2. Explains the lesson/objectives clearly.,5,BSIT 4-E,321,293,18
 Consuelo C. Ponce,3. Answers question of the students intelligently and satisfactorily.,5,BSIT 4-E,321,293,19
 Consuelo C. Ponce,1. Speaks correct English and/or Filipino and communicates his/her ideas well.,4,BSIT 4-E,321,293,20
 Consuelo C. Ponce,2. Has a loud voice enough to be heard by everyone in class.,3,BSIT 4-E,321,293,21
 Consuelo C. Ponce,1. Sees to it that the room is clean and orderly at all times.,4,BSIT 4-E,321,293,22
 Consuelo C. Ponce,2. Maintains classroom discipline.,3,BSIT 4-E,321,293,23
 Consuelo C. Ponce,3. Checks the attendance of students.,3,BSIT 4-E,321,293,24
 Consuelo C. Ponce,4. Sees to it that the students wear the prescribed uniform.,4,BSIT 4-E,321,293,25
 Consuelo C. Ponce,5. Sees to it that all teaching materials like whiteboard marker and erasers are prepared.,5,BSIT 4-E,321,293,26
 Consuelo C. Ponce,"6. Turns off airconditioning units, all lights, and make sure that the whiteboard is clean before dismissing the class.",3,BSIT 4-E,321,293,27
 Consuelo C. Ponce,"1. Projects self-confidence; respects the opinions, suggestions, and comments of students.",4,BSIT 4-E,321,293,28
 Consuelo C. Ponce,2. Projects a respectable and a decent image.,3,BSIT 4-E,321,293,29
 Consuelo C. Ponce,3. Practices what he/she preaches/advises.,5,BSIT 4-E,321,293,30
 Consuelo C. Ponce,4. Manifests and promotes the Benedictine charism of work and prayer.,5,BSIT 4-E,321,293,31
 Consuelo C. Ponce,5. Integrates positive values in the lesson.,5,BSIT 4-E,321,293,32
 Consuelo C. Ponce,6. Recognizes students' participation in institutional activities by giving proper considerations.,4,BSIT 4-E,321,293,33
 Consuelo C. Ponce,7. Comes to class on regularly.,4,BSIT 4-E,321,293,34
 Consuelo C. Ponce,8. Comes to class on time.,4,BSIT 4-E,321,293,35
 Consuelo C. Ponce,9. Is approachable and encourages students to consult him/her for assistance.,3,BSIT 4-E,321,293,36
 Consuelo C. Ponce,1. Starts the lesson in an interesting manner.,4,BSIT 4-E,321,119,1
 Consuelo C. Ponce,2. Clarifies the objective/s of the lesson.,4,BSIT 4-E,321,119,2
 Consuelo C. Ponce,3. Makes the lesson practical and relevant by relating it with everyday living.,3,BSIT 4-E,321,119,3
 Consuelo C. Ponce,4. Relates the lesson with current issues and other subject areas whenever possible.,4,BSIT 4-E,321,119,4
 Consuelo C. Ponce,"5. Facilitates student's understanding by rephrasing questions using synonyms, giving examples and the like.",3,BSIT 4-E,321,119,5
 Consuelo C. Ponce,6. Formulates questions that challenge the student's imagination or reasoning ability.,4,BSIT 4-E,321,119,6
 Consuelo C. Ponce,7. Gives student's learning tasks; exercises related to the topics learned/being learned.,5,BSIT 4-E,321,119,7
 Consuelo C. Ponce,8. Uses instructional time productively by properly apportioning it to all class activities.,4,BSIT 4-E,321,119,8
 Consuelo C. Ponce,9. Encourages maximum participation of the students in all activities.,5,BSIT 4-E,321,119,9
 Consuelo C. Ponce,"10. Makes use of the whiteboard and other audiovisual materials like pictures, graphs, and outlines to make the lesson more interesting.",4,BSIT 4-E,321,119,10
 Consuelo C. Ponce,"11. Provides students with more opportunities for learning by giving assignments, research work, and the like which could be accomplished.",3,BSIT 4-E,321,119,11
 Consuelo C. Ponce,12. Encourages students to ask intelligent and relevant questions.,3,BSIT 4-E,321,119,12
 Consuelo C. Ponce,13. Establishes continuity and unity of present and previous lessons. Summarizes the lesson to bring out important points.,4,BSIT 4-E,321,119,13
 Consuelo C. Ponce,14. Evaluates students performance by giving quizzes from time to time.,3,BSIT 4-E,321,119,14
 Consuelo C. Ponce,15. Informs students of test results not later than two weeks after the exam.,3,BSIT 4-E,321,119,15
 Consuelo C. Ponce,16. Explains the grading system and gives grades fairly.,5,BSIT 4-E,321,119,16
 Consuelo C. Ponce,1. Presents the lessons systematically.,4,BSIT 4-E,321,119,17
 Consuelo C. Ponce,2. Explains the lesson/objectives clearly.,4,BSIT 4-E,321,119,18
 Consuelo C. Ponce,3. Answers question of the students intelligently and satisfactorily.,4,BSIT 4-E,321,119,19
 Consuelo C. Ponce,1. Speaks correct English and/or Filipino and communicates his/her ideas well.,3,BSIT 4-E,321,119,20
 Consuelo C. Ponce,2. Has a loud voice enough to be heard by everyone in class.,3,BSIT 4-E,321,119,21
 Consuelo C. Ponce,1. Sees to it that the room is clean and orderly at all times.,4,BSIT 4-E,321,119,22
 Consuelo C. Ponce,2. Maintains classroom discipline.,4,BSIT 4-E,321,119,23
 Consuelo C. Ponce,3. Checks the attendance of students.,4,BSIT 4-E,321,119,24
 Consuelo C. Ponce,4. Sees to it that the students wear the prescribed uniform.,3,BSIT 4-E,321,119,25
 Consuelo C. Ponce,5. Sees to it that all teaching materials like whiteboard marker and erasers are prepared.,5,BSIT 4-E,321,119,26
 Consuelo C. Ponce,"6. Turns off airconditioning units, all lights, and make sure that the whiteboard is clean before dismissing the class.",3,BSIT 4-E,321,119,27
 Consuelo C. Ponce,"1. Projects self-confidence; respects the opinions, suggestions, and comments of students.",5,BSIT 4-E,321,119,28
 Consuelo C. Ponce,2. Projects a respectable and a decent image.,3,BSIT 4-E,321,119,29
 Consuelo C. Ponce,3. Practices what he/she preaches/advises.,3,BSIT 4-E,321,119,30
 Consuelo C. Ponce,4. Manifests and promotes the Benedictine charism of work and prayer.,5,BSIT 4-E,321,119,31
 Consuelo C. Ponce,5. Integrates positive values in the lesson.,4,BSIT 4-E,321,119,32
 Consuelo C. Ponce,6. Recognizes students' participation in institutional activities by giving proper considerations.,5,BSIT 4-E,321,119,33
 Consuelo C. Ponce,7. Comes to class on regularly.,4,BSIT 4-E,321,119,34
 Consuelo C. Ponce,8. Comes to class on time.,5,BSIT 4-E,321,119,35
 Consuelo C. Ponce,9. Is approachable and encourages students to consult him/her for assistance.,5,BSIT 4-E,321,119,36
